-67.052283 87.286715 -11.303035
-71.052709 80.47038 0.044551
-62.644177 74.513698 -1.557136
-56.919456 54.719286 -8.177251
-63.133159 67.782809 -21.456154
-56.986423 62.218125 -37.826462
-43.703129 74.848579 -57.584211
-36.088938 66.079386 -70.390198
-24.004424 93.060224 -91.361394
2.80671 84.143225 -99.271185
-9.965414 72.117304 -98.418978
-24.767894 71.8389 -91.956646
-47.021384 61.760366 -95.16192
-53.102614 42.635034 -99.962844
-45.347548 26.399019 -81.912872
-40.886758 24.079861 -82.719714
-5.708817 39.829259 -66.995769
6.452983 9.88528 -98.497985
2.92244 25.566426 -98.297108
13.647679 39.156277 -94.461026
39.804529 74.647178 -95.912494
52.182425 72.183753 -96.869478
68.215034 51.432374 -94.05891
80.529237 60.540686 -99.032193
93.591198 65.46583 -91.534356
90.184197 82.70236 -46.358056
95.915385 99.09566 -37.271823
95.76535 95.383273 -26.967671
86.071475 86.510983 -34.235627
73.033623 78.034262 -26.570896
53.758623 64.508672 -53.774073
53.281462 74.412703 -48.796856
31.371726 94.838811 -16.266233
31.557145 75.98908 -6.49276
51.865683 92.397251 5.75849
71.052425 97.676289 9.199988
68.27132 90.965008 13.192164
74.034329 81.725826 15.094478
92.130955 58.752005 11.148051
81.857267 54.309855 10.48324
76.78678 44.111228 16.343167
87.410507 59.774556 33.153153
92.093232 71.898759 48.675164
69.549726 75.679079 41.410461
43.007109 90.219203 64.450061
35.965299 95.522977 97.305048
50.115508 92.854413 90.539895
60.409741 61.702195 82.219007
53.832644 45.889112 84.747069
78.020064 26.171116 87.760535
83.034575 -2.857161 96.842389
81.593767 -8.284582 77.28593
70.252065 7.021039 73.300593
80.363204 14.066607 67.678575
74.364083 20.794915 52.740988
62.115465 -3.706354 62.320913
59.469224 -0.274902 80.658344
54.321055 -26.238357 98.366822
28.074246 -15.524947 84.612528
9.436955 -17.779907 82.787573
-1.407666 -26.858693 79.339092
-0.228668 -48.288672 93.979084
-21.928849 -56.413532 99.216685
-27.074371 -44.759004 94.675399
-47.094303 -36.24065 92.472459
-42.494185 -47.89223 93.502761
-42.542368 -63.581303 63.404786
-47.379084 -75.577998 72.160134
-54.162961 -87.306629 76.591621
-45.128601 -82.799875 79.08577
-26.440342 -81.874586 82.948808
-25.188312 -81.659582 82.624079
17.811799 -95.394263 99.059081
23.895656 -95.036496 97.861414
22.547951 -79.72358 92.32567
8.024873 -82.447443 77.580414
1.828125 -88.967132 60.351955
-6.921703 -97.300094 29.152776
-13.564489 -79.651 37.62268
4.081311 -65.571605 50.165799
-7.033164 -58.080554 47.462842
-9.539881 -64.060965 56.472719
-6.615299 -49.636745 66.536726
8.791654 -17.756981 65.398335
32.638108 -28.819854 47.957023
31.203954 -14.967682 59.683401
42.372028 -5.509027 70.326611
35.554026 5.21941 73.299761
13.900887 17.950062 81.945986
-1.917276 3.914358 65.981813
-27.328274 33.680214 64.523349
-46.350792 24.114932 51.064388
-33.665095 39.991304 26.229083
-18.414845 41.930782 36.909228
-21.287107 26.025133 29.404698
4.315517 23.171749 24.254464
9.591109 11.789301 37.253475
27.397903 7.477937 48.6789
39.870607 4.084774 59.215098
45.137436 19.465457 52.228767
35.711126 50.80947 30.959944
29.338479 68.416926 23.638843
17.396215 67.692408 32.756663
12.229466 77.933447 38.433492
12.245594 87.33319 30.260691
-2.49808 81.142605 10.288875
-35.432794 84.512439 10.335522
-19.562329 93.952235 4.048853
5.332286 90.941097 -1.375939
5.586799 93.262279 -18.15313
14.114767 81.821773 -46.200197
17.499999 64.808526 -44.309401
10.629939 66.758622 -49.705225
11.146929 72.99376 -69.191277
13.895915 96.626854 -75.13042
10.360356 99.407537 -57.965717
-3.163197 88.506656 -54.6101
-27.614466 99.825645 -42.72497
-49.974799 92.039736 -30.90873
-74.149276 92.115035 -35.433237
-72.517751 78.865736 -51.675801
-91.579924 67.554875 -98.325721
-90.356394 64.092169 -99.041907
-92.784305 35.107304 -83.170259
-91.311447 40.467639 -75.084279
-83.414087 41.769497 -78.171777
-80.277134 45.812562 -75.815074
-61.097472 50.977585 -68.55586
-66.161518 43.189612 -38.609748
-87.394476 26.921042 -52.133631
-92.83385 28.145172 -42.49756
-80.408055 -6.971897 -15.94096
-66.857774 -14.467876 -11.424049
-52.30437 8.194143 -28.188176
-49.382675 18.979509 -21.104062
-68.836063 27.699147 -7.814602
-79.394262 44.914576 -10.793408
-64.207673 36.602961 15.883393
-44.965766 17.519514 -2.722253
-31.715684 9.42079 10.136523
-22.160566 -23.573196 25.117039
-27.490568 -38.125106 28.456203
-34.157325 -37.914586 21.156618
-42.143648 -25.703047 15.741698
-24.533235 -35.053153 -14.871481
-8.406741 -47.332956 1.392714
-23.246123 -59.258217 -10.064524
-27.210776 -65.934528 -8.394738
-71.227869 -98.488218 -27.310926
-44.449618 -91.73901 -59.532495
-13.800853 -95.335202 -38.236194
5.681884 -96.019322 -52.301543
3.578832 -96.464486 -60.339475
16.086982 -70.257762 -50.317675
9.93384 -65.600102 -52.340492
-10.421392 -62.496069 -43.112275
-2.469594 -39.468779 -41.698348
-2.114595 -38.919237 -61.009603
0.284461 -36.180473 -93.882331
27.724315 -50.363507 -77.982741
29.432419 -88.099438 -82.047965
55.294822 -90.083252 -99.454894
69.487249 -94.814147 -99.315396
88.289142 -96.305304 -85.128973
88.516898 -99.398549 -64.523524
77.835387 -61.305586 -69.884636
74.391212 -30.021468 -78.795513
92.827975 -25.637788 -88.965295
88.25232 -19.954752 -67.197027
95.219454 -34.15158 -58.544968
88.556334 -34.718695 -30.448516
71.745499 -35.263107 -2.509411
82.099679 -24.586272 3.622956
95.248925 -43.265812 26.224649
92.794962 -71.471171 3.396603
89.809902 -91.454275 -18.428155
72.502655 -94.818061 -24.017939
67.738417 -96.441464 -8.236764
56.411151 -73.902087 -17.987303
48.652101 -88.071948 -1.051411
19.272282 -92.516542 -7.618691
9.90963 -79.498186 21.285676
19.883953 -66.788706 35.127357
18.507789 -80.278823 33.587311
30.853976 -84.040768 36.282649
44.642861 -79.114883 36.526508
38.363298 -67.996106 25.953207
45.766525 -64.360099 36.049709
55.820013 -69.866534 46.745188
70.956633 -81.783197 30.930007
83.696206 -90.129245 56.86132
98.872434 -96.081589 74.376572
97.099965 -71.111952 50.934106
92.892967 -59.182114 72.256788
89.906393 -40.856696 78.292998
86.287229 -39.111448 79.727939
69.855038 -36.965459 70.428847
61.257844 -39.386775 78.354971
54.815654 -43.459359 62.226489
72.58061 -45.699285 46.256303
69.691891 -21.643098 43.841756
76.863062 -23.36046 27.133427
69.660396 -11.586107 8.613854
92.384799 8.545971 15.618806
69.662566 6.250281 -11.234936
48.306313 34.85395 -6.800625
49.495918 42.700067 -4.001196
41.346104 42.169317 -33.83207
37.14805 37.296194 -34.518226
29.717829 41.297186 -35.716168
33.856073 35.942903 -60.559824
39.028163 42.886415 -71.340231
38.606676 28.397171 -79.741878
38.125948 15.106951 -56.319934
32.349333 -12.919362 -66.943336
34.530236 -23.815342 -68.879455
47.162783 -11.174574 -84.824527
66.279077 -11.328762 -86.896473
93.295148 33.745323 -93.244307
78.375073 18.814874 -54.986949
95.672404 21.612565 -46.042943
85.357979 24.180614 -38.839826
71.781227 45.396146 -42.054177
59.081805 31.936318 -25.458961
68.827342 11.064471 -33.072964
55.63198 15.615477 -30.669973
34.994085 -1.138267 -32.141196
31.100438 -22.447723 -31.200978
15.836658 -31.959335 -21.583466
9.839054 -31.832813 -14.824983
15.707462 -38.638497 -10.492874
22.997721 -48.3456 3.702141
16.682085 -28.095649 17.964784
39.953715 -18.896036 23.42873
25.177335 -2.454569 17.364907
14.413884 -2.659142 -2.581445
1.160714 -13.379469 4.748279
1.98333 -12.373517 -9.184447
-3.06917 -16.551521 -25.893475
-5.666433 1.410649 -25.052253
-39.538377 6.787767 -35.647563
-46.926028 -0.651395 -40.161559
-26.075371 -10.446854 -44.363824
-1.051598 -9.718841 -46.279766
-11.894439 -3.495552 -57.832398
-25.516085 7.996471 -72.30223
-29.513113 -9.456978 -70.572542
-26.176442 -33.504156 -69.558757
-45.072269 -50.455853 -86.933363
-90.110544 -53.687655 -98.438614
-89.443741 -26.451914 -96.751978
-75.356989 11.835075 -86.789048
-88.893238 -9.968537 -62.403208
-78.322593 -12.643924 -47.767937
-75.877527 -32.072645 -52.628387
-88.504134 -44.319493 -35.683996
-89.829539 -62.69579 -32.925836
-78.72695 -55.401243 -28.549732
-69.236506 -55.374758 -23.018227
-65.418027 -50.152537 -16.081308
-60.971084 -29.290171 -17.866918
-44.616384 -44.94925 -30.516971
-51.204651 -59.944699 -26.870687
-43.843661 -62.504102 -32.785491
-28.174454 -69.925444 -26.44731
-5.742163 -74.78918 -21.091234
-5.648426 -74.621983 0.995209
-23.274383 -84.240529 9.280252
-32.524565 -89.796356 6.08198
-27.752781 -97.71243 13.966577
-53.633246 -94.502548 35.242532
-67.11913 -90.32928 48.309473
-70.311264 -89.933768 45.724444
-93.297899 -67.030589 70.161519
-86.649466 -23.230211 62.289377
-60.703488 -21.308219 53.406051
-65.61354 -25.805663 71.801231
-60.09392 -32.122597 81.169233
-52.919786 -19.059309 89.55445
-34.868498 -0.838321 97.048593
-49.897655 7.319985 96.715548
-45.900891 12.591339 88.470752
-47.823443 13.699409 74.747204
-76.831209 18.809085 96.754306
-81.34853 -3.550453 92.635146
-62.550398 3.458815 69.269616
-69.580606 4.172641 52.199562
-76.885842 8.128195 44.484364
-90.369335 25.736072 61.119335
-99.965918 34.746257 77.195412
-64.72363 47.067967 83.097761
-31.264784 89.425439 98.766752
-39.144035 95.337042 94.856587
-64.83996 97.727932 90.48397
-59.073607 88.364992 75.221519
-48.089688 99.469176 73.868257
-28.709705 79.108713 69.61233
-30.9845 90.7978 42.229834
-60.562745 90.930178 29.862419
-98.628199 98.383447 8.4004
