-53.463456 -16.906149 55.638594
-46.861145 -15.878515 46.584707
-54.982716 -13.784101 32.157294
-49.589859 -20.450317 29.926957
-32.807599 -7.482002 37.418127
-37.174655 2.840707 19.12665
-36.345236 -16.303054 19.836074
-47.940397 -12.193719 17.652355
-54.045455 -18.754717 9.863793
-55.691071 -35.158133 7.066256
-33.992292 -35.232706 3.681078
-25.745718 -35.842434 -3.042068
-15.31871 -38.353558 -14.518316
-10.839722 -42.349388 -1.529297
-7.201594 -39.375305 4.940072
-10.424976 -53.188846 -2.315295
-13.867168 -57.928353 -8.719887
-18.770681 -55.493262 -5.205352
-35.547005 -63.447777 -7.352296
-35.715718 -47.177546 -17.891077
-48.092313 -17.167233 -17.820489
-45.943801 -3.935309 -11.65597
-34.546579 -4.802809 -10.716399
-25.454891 -8.228531 -1.344589
-9.403927 -10.50383 -26.668657
10.185507 -17.049303 -10.876567
28.120589 -22.923819 -39.468289
25.075846 -44.184387 -70.927883
31.009936 -33.808146 -74.14875
12.360576 -27.562073 -96.385656
18.166472 -13.029573 -96.506972
-8.783141 -3.78976 -93.236698
-2.870268 27.637029 -99.698459
-16.794998 26.768007 -95.683953
-20.210183 25.051133 -75.061131
-38.359137 19.309789 -63.926229
-27.985723 10.293674 -38.71358
-34.98422 23.933659 -27.976366
-43.534664 19.693659 -27.908688
-38.041478 19.137031 -17.841711
-48.271258 2.045626 7.763293
-58.252431 7.624602 17.405612
-68.680386 -4.982009 8.617342
-93.927997 8.886622 13.621011
-90.175863 33.184773 19.771478
-94.084761 33.667429 10.596507
-83.82014 34.066548 -5.193658
-89.823373 35.34342 -7.024546
-94.980388 45.670492 -14.935031
-93.405077 36.144348 -21.136202
-86.718194 31.590702 -47.043544
-97.98444 43.115486 -43.718096
-96.531668 45.136123 -47.656124
-84.498019 59.311079 -51.228307
-69.767098 71.093315 -44.709183
-67.583663 65.51405 -46.369406
-53.973347 53.971815 -57.500267
-54.563629 32.141961 -65.72437
-61.893962 19.391844 -60.144221
-81.537946 32.057294 -77.23178
-80.125132 22.149788 -90.246271
-76.844372 15.12399 -79.784216
-85.057174 16.77475 -75.52326
-96.890466 19.978733 -75.17933
-99.015286 2.761065 -84.16098
-93.327997 0.964668 -61.635897
-98.742532 2.917101 -51.830086
-72.34857 2.82483 -31.538954
-84.685853 6.011674 -23.019217
-89.238646 7.323807 -11.016029
-73.934454 17.655452 -11.275967
-51.304004 43.766325 -5.170825
-48.644848 54.159202 33.025718
-51.520467 47.411145 34.887584
-61.393935 23.306727 34.42889
-71.983567 20.930708 29.616019
-67.594219 13.34035 42.381168
-98.987235 23.233093 75.428048
-85.096428 27.425476 99.797941
-91.569777 60.7023 91.950777
-69.722109 71.626879 99.517331
-68.238922 76.662331 90.170291
-81.419566 76.47781 77.978928
-89.338347 90.936511 87.195674
-96.248932 77.275525 78.905639
-93.617575 74.358775 58.406352
-89.794115 91.035414 53.847894
-85.433908 83.561781 49.449201
-81.390478 64.616171 35.070083
-82.131244 82.471076 12.714519
-77.930288 77.340396 0.748049
-98.752459 65.304041 -8.81619
-96.150671 65.329416 -17.530936
-98.280961 53.205515 -21.97525
-86.95873 61.41586 -19.967751
-82.181617 72.365873 -24.210308
-81.569496 76.122936 -14.540398
-70.527589 86.627931 -21.875452
-95.136746 94.398894 -23.891748
-96.893126 96.224352 -53.767962
-88.643154 82.949136 -56.630159
-96.508917 61.913792 -67.584936
-93.001982 62.74339 -74.64006
-91.453831 57.206995 -84.036221
-98.218274 65.603728 -91.19584
-76.210294 66.992089 -89.880154
-67.65694 89.603198 -99.6959
-63.946779 93.001308 -74.86621
-56.579858 92.132636 -56.545223
-58.066813 83.590043 -51.985862
-53.32831 80.388416 -47.043583
-41.038987 83.055019 -33.628634
-33.599986 72.743327 -42.775164
-9.539836 60.14192 -49.287381
7.183069 57.866198 -64.026802
-0.949741 55.685166 -78.061288
-7.717856 43.125955 -79.077667
-36.518009 48.211135 -89.311821
-48.074361 41.037381 -85.321582
-51.764755 33.997186 -99.803463
-43.701082 22.406457 -96.318531
-47.348313 12.938683 -87.199654
-46.246068 -6.666921 -63.665571
-29.07895 -7.29834 -55.097535
-21.726116 -18.151828 -46.845809
-10.987244 -28.903265 -46.366677
-11.552149 -46.924113 -58.975076
-9.269839 -40.210041 -66.200082
-16.851909 -26.543667 -72.315851
-3.044228 -7.097056 -64.566204
1.737949 -3.300038 -45.546047
17.900868 -3.278723 -52.907228
31.868448 -0.047779 -65.962184
39.542635 -10.345608 -54.569721
41.33305 0.606729 -43.550515
51.589876 11.980813 -46.107898
61.421169 6.250711 -53.746001
59.536568 20.240203 -55.906771
43.178052 17.138436 -58.032906
38.877725 39.616124 -57.718245
41.662639 60.410006 -40.016304
47.111486 36.123955 -24.547039
67.803782 49.322218 -46.372813
75.559912 43.316797 -49.957794
71.034447 37.715934 -25.34731
80.567246 13.595911 1.126877
95.650234 11.421444 -11.4248
88.542183 38.139763 -39.352953
98.996991 66.974632 -45.805747
84.542049 75.5336 -25.339657
91.476021 92.912246 -35.632206
72.024349 82.764366 -39.339087
68.126601 94.303846 -33.128207
47.318413 93.734881 -33.166015
43.554573 95.464906 -19.766134
29.384324 84.774409 -28.792372
39.601427 69.741973 -19.141572
51.736859 57.906688 -0.807093
46.392127 71.246418 7.264194
47.187516 77.476459 11.109228
43.19308 83.896114 12.666932
54.911283 74.521311 18.163509
62.020028 81.412043 32.782466
60.051351 97.439333 21.919105
70.009088 93.593918 3.777634
67.169234 81.982324 9.125699
98.566283 84.533601 26.059883
95.943562 75.338049 17.761536
93.700406 58.316037 14.717404
80.592012 56.359158 33.63353
72.546304 80.721361 53.958475
73.945666 93.108024 61.731869
70.195123 71.914936 65.858987
35.07009 79.885694 64.951848
21.291049 89.00384 53.232971
11.793995 87.578375 36.720259
-3.044432 96.213701 59.303778
-12.987304 86.805257 75.847898
-39.037085 93.95186 70.894699
-45.530457 88.850179 94.266429
3.829498 98.183289 93.423965
16.529805 97.76981 93.632231
27.293796 99.661061 80.44233
51.038438 74.036109 90.255736
91.296177 75.255195 96.064857
92.091786 62.021898 78.028575
88.701762 62.723891 71.014806
82.21099 46.7537 68.706023
93.011695 37.298755 62.257126
85.077803 29.398767 53.349779
69.780951 28.636944 55.380954
74.681575 13.839002 56.798962
83.884816 2.79493 52.892343
67.374584 -6.073635 55.973117
54.760725 0.148403 65.44922
51.984638 12.044134 78.060123
47.233099 29.740503 69.77774
44.818263 30.283956 63.352536
48.357206 12.885902 44.994046
36.685625 9.503519 32.173828
31.099848 -3.386423 27.408515
44.129659 -9.29203 20.111498
39.935117 -17.514021 8.744153
52.461291 -24.859602 19.753843
50.612175 -34.099431 33.674528
38.740612 -14.207776 34.855614
36.703981 -11.95147 56.900647
7.635475 -9.119292 46.646971
-18.61501 -14.125042 39.668647
-12.608554 -27.886426 36.332449
-26.210768 -50.448997 49.5492
-15.423381 -64.264171 76.289343
-10.479561 -52.097179 73.528073
4.86959 -39.377164 95.760041
18.60697 -43.341552 72.20732
10.943421 -58.393117 74.897304
6.361771 -74.114052 67.405358
3.662107 -51.327208 43.423372
22.892575 -60.142312 30.132253
28.427369 -55.727929 46.834473
34.210905 -30.580007 63.758775
45.681729 -53.543263 73.486183
39.90314 -35.918955 87.561662
38.334918 -19.814705 85.113317
40.355337 0.22647 94.327147
39.612582 10.662749 87.244451
28.385711 8.102906 76.716074
19.268065 -1.140073 77.371096
2.676761 22.246875 72.199851
22.199704 23.17147 68.879592
17.246041 31.631193 49.357036
23.933907 52.986084 65.927785
21.401869 48.908622 44.337098
6.325945 49.707544 48.03625
-3.566337 58.400442 44.642667
-32.035842 57.982327 41.455828
-31.664986 67.791225 42.11343
-40.240741 71.181306 38.40659
-38.547242 56.38828 64.122344
-26.148487 50.626017 77.699098
-18.858327 59.290966 75.62221
-7.440293 55.089583 88.692383
-0.34583 58.928316 96.01927
12.983148 33.063317 99.323948
-18.518447 28.361135 89.475345
-10.707404 13.59947 87.295381
-20.198348 -7.935046 84.138721
-45.613326 -14.566117 94.063557
-60.186254 -19.692372 99.841084
-48.017715 6.050747 98.851304
-51.129084 17.364907 87.442358
-49.083851 31.555738 81.230111
-35.701481 37.5872 85.407567
-20.289963 34.088119 68.958608
-29.480862 22.035153 65.707478
-21.424218 14.9506 68.46157
-18.268761 13.375749 52.512524
-6.46691 8.860878 38.610334
-0.712343 15.836354 26.93322
-9.7878 42.9592 16.530267
-18.892482 54.573412 13.293783
-18.390043 52.362 8.966318
-29.463432 60.203078 -7.897867
-32.516761 56.695608 -19.678367
-34.399969 85.616836 -12.689638
-32.424213 85.892825 -8.258945
-46.428129 99.801736 1.073128
-37.062461 98.68384 12.082987
-16.670037 93.817145 26.795016
-29.413516 71.808213 10.636811
-25.094547 70.807384 9.155659
-15.720479 71.17011 12.860915
-1.276845 77.980493 24.062667
10.102931 74.443874 12.359544
25.280788 81.480072 10.010014
27.213682 96.734599 -1.488857
13.420479 90.754994 -11.826164
10.04237 87.283562 -33.346774
-13.127938 78.136219 -19.890153
-1.702076 56.188056 -20.279353
-2.886473 39.801968 -27.982038
15.591039 29.936315 -10.629457
10.439089 22.003565 -21.148469
16.753003 14.019799 -28.228188
29.357601 11.319632 -49.017447
19.69287 20.159311 -46.894342
14.513382 33.779911 -42.43091
10.868172 47.025722 -46.257848
6.98132 49.683963 -47.949253
12.195482 45.27599 -56.261468
12.800437 32.601424 -76.655125
20.344127 23.319626 -79.815496
25.285106 52.081961 -92.593484
12.162043 55.441975 -96.725094
-5.995684 82.193561 -99.926568
-15.911707 90.867114 -94.410085
-22.936348 91.547482 -83.976745
5.625459 93.044636 -73.310537
4.745416 82.147281 -59.427825
13.12409 69.181267 -68.301064
27.840578 70.048679 -73.48757
42.720167 57.414812 -77.611663
57.804937 70.839756 -64.419982
71.932349 96.830691 -71.267359
95.870826 83.09968 -62.284508
97.203041 93.433735 -80.550783
99.660327 81.785877 -92.068
72.864627 74.208768 -74.383306
58.693642 65.417392 -85.028738
55.290553 62.021451 -78.939515
56.684099 48.63556 -78.980819
54.485407 27.582751 -83.573126
62.335966 36.562222 -95.395639
91.964148 40.175192 -96.074262
98.877749 12.474655 -95.464673
85.733436 5.410406 -83.993704
87.856773 1.696803 -74.989757
59.175356 1.681205 -77.906012
54.866692 -13.816402 -90.547904
59.74009 -29.956381 -80.376403
69.495075 -28.487136 -73.776301
57.678598 -39.304129 -65.227717
91.421624 -49.873874 -70.398104
96.76072 -53.769016 -73.213546
85.821288 -67.709881 -56.07201
96.443684 -70.107767 -54.533204
99.800196 -94.292942 -88.621854
70.345482 -96.640303 -96.859655
45.79953 -95.306585 -94.267888
64.947428 -72.943327 -74.399854
72.132288 -66.580378 -63.332688
67.010047 -74.74096 -36.936137
67.054816 -68.213922 -35.744308
71.153152 -62.251035 -11.121892
74.539833 -58.997912 -1.86183
65.218447 -59.035237 9.849745
55.62213 -71.150758 13.591113
46.439424 -62.982848 12.471535
31.935206 -83.92967 -1.163136
34.770281 -99.846695 -21.098963
41.499553 -99.162241 -26.514522
49.83072 -97.358978 -41.976862
13.272827 -73.384816 -44.311589
9.672858 -56.414437 -69.124569
3.368076 -78.697809 -77.759869
9.105143 -77.945567 -82.047077
11.392618 -93.663754 -87.476788
-14.678908 -80.930637 -96.859893
-26.101861 -93.132697 -85.622092
-31.158583 -87.568008 -83.948123
-35.975815 -80.835346 -74.14321
-37.082227 -83.241178 -97.55047
-56.254063 -60.396905 -95.196736
-71.137158 -63.668926 -63.836406
-83.950162 -64.420193 -63.992739
-85.757624 -65.237747 -64.552579
-90.009822 -67.407476 -81.702257
-81.509508 -55.649755 -76.452839
-77.774703 -40.691423 -71.48386
-70.790265 -40.463834 -69.071084
-70.183126 -41.141137 -55.256738
-63.793765 -37.109112 -52.692684
-62.494173 -25.482305 -42.418968
-65.300273 -28.39795 -53.758592
-52.439564 -43.31591 -81.154062
-51.246308 -19.620053 -96.719808
-79.798226 -28.992795 -84.470123
-90.290821 -22.392948 -65.994551
-84.969881 -24.71417 -61.038919
-85.560109 -22.128078 -47.593809
-80.672875 -22.647698 -46.091295
-77.809538 -29.048165 -30.550383
-78.723311 -42.802186 -37.874708
-67.347848 -37.608834 -33.104731
-72.856525 -44.108748 -19.992952
-73.064825 -45.342409 -16.301686
-75.145124 -28.636682 -2.470072
-61.755276 -43.620999 1.475671
-64.016687 -72.209063 -1.776012
-74.592644 -76.823886 4.944329
-84.081378 -69.733957 -1.248434
-86.438584 -81.912786 -9.124578
-84.829678 -59.978202 -29.958666
-99.12101 -40.431973 -34.879662
-98.837477 -37.902663 0.574339
-82.307689 -25.246284 39.798896
-73.309901 -45.773848 62.767877
-53.59614 -54.998881 49.966845
-44.024458 -69.561565 63.908575
-46.44179 -96.152644 78.918567
-52.598021 -97.324229 97.022633
-33.700385 -88.764384 96.147346
6.846458 -78.994997 96.06637
1.753225 -81.472157 82.229727
-2.054393 -98.15142 65.262939
-6.920468 -94.103135 47.080097
-10.437939 -90.169182 51.769791
-25.278261 -96.84461 50.802293
-27.292163 -86.887825 40.886719
-21.288341 -95.869439 28.582658
-34.670809 -89.220527 15.330309
-34.445448 -85.463882 19.374715
-24.352298 -77.245327 12.099276
-17.453602 -59.149365 19.411425
-12.063094 -55.787054 20.554467
-16.785958 -56.129423 14.67048
-15.393597 -44.478813 12.300913
-13.80626 -41.350749 16.816821
-5.940375 -37.579698 17.478735
-3.604279 -15.401645 25.860975
6.742035 -12.156488 23.006642
3.166205 -1.937484 21.39102
11.293001 3.049512 24.799809
4.530318 6.909258 15.859069
-2.16359 3.343778 5.511064
11.944341 8.64303 -0.359191
19.146219 5.850436 7.088994
15.349584 27.353277 23.517863
30.453395 27.790623 16.854459
28.882897 30.82471 27.240761
33.865003 32.216706 39.915573
47.080938 48.677776 40.733944
53.482451 42.233996 56.251068
55.902153 41.158033 70.694126
82.390929 34.184133 95.79563
81.179642 19.513659 91.263939
85.164294 2.457354 73.713697
93.765715 -18.266918 97.244718
69.276452 -45.447855 98.171468
69.70595 -56.176545 87.431677
79.154751 -50.811356 82.695816
93.090438 -42.929842 81.113075
75.679459 -47.539984 52.544116
84.07091 -44.51768 30.526824
95.797705 -17.659899 55.715028
99.998354 7.342982 33.484379
92.757081 5.120483 27.106162
64.2713 10.266543 27.055907
53.984594 8.64817 9.203389
51.81949 -0.653408 -8.810964
51.839563 -15.873692 -5.805891
74.073575 -34.774932 -7.773186
85.819037 -26.49528 -1.256083
77.405381 -28.585104 -20.284643
86.450686 -33.738567 -51.071382
97.452196 -34.596966 -50.106514
91.035293 -49.705143 -23.458256
92.911263 -53.508898 -5.335795
89.894858 -81.679037 -5.755731
83.02657 -87.246185 -6.391492
89.636896 -91.712945 1.320393
83.616334 -93.35506 27.579109
79.620787 -95.981186 44.363069
93.721822 -75.596552 54.256122
98.222868 -63.114508 51.085794
95.302686 -62.456439 50.924196
79.348767 -85.617369 39.830728
56.819877 -90.840253 8.4003
48.939218 -91.487375 6.062627
46.991535 -96.529325 6.101625
34.774093 -93.372725 16.032726
33.010108 -93.810083 21.420342
39.690315 -86.141764 49.332254
50.875216 -92.356896 48.284919
44.945879 -91.148418 55.729032
56.296156 -82.165418 68.617666
48.24365 -89.468174 94.510378
15.956597 -98.635768 76.948648
23.796282 -95.972076 49.860558
17.537519 -93.734488 22.890158
13.000562 -85.768442 33.48531
2.148958 -88.336883 37.676094
6.093553 -77.217093 34.211486
1.121196 -65.265771 11.661354
23.513066 -72.186907 -16.320171
20.00958 -77.248772 -14.076984
-10.05737 -76.088665 -23.643486
-8.206944 -90.790338 -30.400498
-24.799029 -95.784798 -28.469288
-15.918221 -86.924406 -57.389855
-34.35808 -75.104624 -51.954975
-50.724415 -72.124065 -61.324435
-53.76308 -95.717176 -41.31525
-58.813801 -76.610576 -28.453987
-46.443835 -85.088456 -0.344723
-59.203983 -86.050838 22.094319
-62.395725 -95.771049 27.845669
-56.391008 -86.662524 38.999011
-81.559828 -72.296189 41.668869
-85.496887 -94.94804 51.844822
-79.221006 -82.384697 67.685766
-73.711876 -88.676849 75.824516
-80.056761 -77.011259 73.003745
-92.706488 -79.819109 78.207534
-97.844312 -68.933283 97.490825
-59.33828 -49.054754 87.434689
-47.181727 -39.085203 89.72554
-24.722836 -41.900097 77.079075
-33.243735 -16.567126 72.325701
-35.168421 9.876925 65.82139
