41.46957 9.03519 4.00348
72.58368 15.55495 6.86093
55.38462 44.88223 8.61013
51.09768 44.51981 32.35931
25.529515 2.059487 24.75498
30.98462 6.74227 50.38376
10.728001 26.299304 47.212187
4.4278 56.74935 12.60815
0.0 0.0 0.0
-19.98 5.04305 14.95504
-14.69312 31.7617 3.20024
-14.09549 35.14856 3.46358
-26.21889 53.36048 3.69099
-10.983278 45.053951 30.422844
-14.81414 46.96265 39.21162
-28.604279 25.225134 50.033676
-26.42238 23.29858 46.2201
-28.18415 14.45842 37.02832
-34.16483 8.28486 33.3921
-59.31445 15.87358 25.8525
-66.056989 20.557763 8.255229
-65.15769 27.34767 1.0373
-33.755092 1.805942 0.471696
-10.22958 0.547148 51.23541
-1.723612 -16.691284 42.239005
-0.17373 -18.16613 1.49123
-39.97663 -11.36452 20.08857
-43.12826 -22.70248 21.47258
-46.65503 -23.19265 13.85494
-46.50321 -43.13397 21.96442
-8.18464 -61.34956 28.40756
-11.76301 -52.54468 51.42212
-8.66144 -40.86415 42.75453
-15.188422 -34.691756 52.709526
7.857682 -18.424643 54.015277
22.549214 -23.901504 62.195119
34.75601 -7.18451 55.00421
34.78781 -11.5001 35.79733
19.68033 -8.3547 33.81486
19.86273 -18.69789 21.88742
19.79356 -18.63636 21.81892
3.272447 -17.345728 30.128331
3.304967 -17.518207 30.431845
1.20862 -50.77062 2.21741
19.358398 -55.502981 5.311671
23.55468 -44.873 7.90749
50.62257 -38.97986 20.3206
63.16665 -17.945205 19.516382
57.6778 -7.11525 21.08009
59.023395 -2.77694 2.473644
45.17834 -10.71109 -12.33013
43.376185 -12.993812 -11.513691
25.81532 -6.21353 -19.18773
17.32589 -9.66715 -30.30307
26.179531 -19.448824 -37.53367
23.501901 -20.217549 -24.990119
5.85883 -26.52454 -12.00123
37.36291 -39.87443 -16.67998
26.32166 -40.84363 -35.43434
23.973516 -36.251526 -43.712072
13.13772 -20.87713 -55.87991
-1.84376 -31.42875 -49.07535
-5.41199 -18.43027 -36.74755
-4.82554 -16.4315 -32.75755
-4.22874 -30.73668 -33.14975
-3.63042 -36.15031 -35.47885
-11.02705 -45.36064 -31.21219
-10.27046 -52.04798 -26.56955
-10.14027 -52.43915 -26.68326
-9.97648 -55.10603 -39.19803
-26.77098 -35.587458 -39.095157
-26.75893 -24.42217 -17.75248
-30.89858 -28.19683 -20.50308
-38.87091 -38.02093 -21.3259
-39.44034 -38.56974 -21.63168
-47.971446 -38.251986 -13.621345
-40.270784 -47.749712 -8.470665
-17.9055 -61.839154 -9.42213
-17.03055 -58.88724 -8.98248
-16.023261 -38.826946 -9.440836
-4.95203 -4.14084 -11.56625
-4.95181 -4.13973 -11.56674
-4.72264 -3.61451 -11.51219
-25.89262 -0.54392 -48.71237
-19.662874 1.218167 -41.947452
-41.14851 3.02206 -33.93018
-4.94323 24.76731 -7.58485
-2.479145 53.692949 -21.57215
-5.27146 40.88126 -2.02607
6.998159 55.924563 -3.630803
21.79524 44.32894 -6.6374
45.267333 46.004157 -19.233649
28.39238 33.81499 -41.27499
5.78997 27.05174 -27.6822
18.9897 25.41426 -5.28523
31.54083 15.39508 -10.0226
47.79241 3.2306 -13.85667
34.48844 0.81384 -26.33508
16.35267 1.84517 -72.75205
33.53772 10.97975 -10.78832
