17.13487 95.09166 81.36149
17.12633 89.54439 94.40007
5.94246 72.82002 98.66951
5.96305 73.76012 99.96908
0.113573 70.252174 115.055349
3.883546 62.6663 119.254172
20.115274 79.838259 109.745639
28.106786 102.821861 126.355428
32.11395 117.3215 149.90885
72.81111 130.34688 105.60881
84.24485 98.74675 102.3339
74.49241 80.94836 112.85833
93.30583 49.63735 113.3433
130.27701 23.45295 111.81157
110.617165 8.27791 96.252487
78.953736 1.965764 81.247462
78.43761 1.77365 80.64194
120.374369 3.478169 66.809511
108.34733 1.02555 55.40428
101.55576 17.61632 40.08362
104.91115 23.52447 49.71757
143.857853 40.740104 54.709131
152.99442 10.86202 55.40292
160.27761 12.80869 28.9385
149.61169 11.38666 23.43333
170.905971 43.993766 18.099381
170.378233 60.241229 17.309436
147.52622 80.63457 63.89157
154.704988 78.88771 67.377602
148.72602 79.9818 95.84806
134.72383 116.44308 62.81109
117.575351 104.289644 32.759717
102.372396 82.820341 48.498744
106.66898 49.70337 32.10403
100.640037 48.721339 8.443519
88.228545 57.471786 6.565449
58.8441 69.73226 5.37318
55.38462 44.88223 8.61013
51.09768 44.51981 32.35931
63.70804 30.55661 26.0927
72.58368 15.55495 6.86093
41.46957 9.03519 4.00348
0.0 0.0 0.0
25.529515 2.059487 24.75498
10.728001 26.299304 47.212187
30.98462 6.74227 50.38376
41.49699 12.74102 61.81126
24.942104 6.990935 78.224659
38.55636 5.50293 92.81315
44.018681 12.346995 87.247063
39.55256 20.09812 90.3725
45.097959 26.453332 106.11275
59.178524 33.961207 111.43154
53.86964 26.18057 121.84745
63.190051 19.076795 134.991075
54.449689 6.413625 151.801514
86.00014 3.44589 144.09503
96.945217 22.179814 161.046783
101.81327 37.39902 169.13257
88.10315 20.77392 164.13746
70.61621 4.0914 187.45971
42.005906 4.307086 185.701253
31.301301 1.869365 190.787938
36.62675 13.691031 165.543939
15.45161 18.645008 136.892074
19.24127 33.77703 157.77964
24.34425 37.724455 151.979992
35.521861 54.710867 167.084211
30.355943 58.05784 175.602445
58.526564 39.377154 171.747442
66.153285 35.12302 156.566164
49.72459 57.31781 122.22746
29.809414 48.253814 109.271406
20.947584 55.797088 78.780933
46.34786 50.16825 80.29067
54.80091 47.72164 84.2701
65.14448 46.57185 88.56375
84.65575 40.2816 86.24862
92.29933 41.47969 89.2295
73.6921 50.20051 60.65246
88.09932 82.23946 82.48817
71.027282 107.660105 63.506592
54.004732 102.249359 76.936998
55.23252 145.416662 79.708537
74.442726 136.170861 62.727547
92.322258 136.560615 49.34767
92.364087 136.779329 49.423795
117.128172 155.133202 49.615858
121.161355 132.521094 18.576012
136.61346 102.72558 13.24855
101.181604 107.045289 5.044169
81.63865 113.27087 0.97883
95.449606 146.925769 8.526332
47.064895 181.480077 12.336924
18.005513 156.470977 5.348118
10.58387 160.90298 26.23846
22.268224 166.057056 46.705722
33.24007 142.41868 49.34537
22.018457 137.635172 43.477983
21.22676 135.64563 42.98277
15.311785 125.798985 21.934978
35.944542 117.749563 13.973218
23.317174 111.391369 40.673625
41.740793 116.754176 47.348781
40.290735 96.083508 41.933272
29.352693 83.983919 30.552598
24.13721 76.3677 9.77904
4.4278 56.74935 12.60815
1.99145 81.2391 30.02187
12.08775 86.01568 14.75993
11.441908 111.274036 22.408095
-180.070487 26.30222 9.55987
-180.319096 26.351317 9.594682
-180.217146 37.308628 14.426629
-165.325586 47.009232 22.287053
-170.703339 41.195601 31.700589
-158.219258 33.162421 55.457602
-164.42201 33.37108 62.80742
-145.580503 18.060345 61.266049
-136.49016 13.69265 78.55955
-144.006793 13.237201 131.729855
-120.02049 25.88107 116.17697
-103.33319 27.94615 91.20037
-103.16481 34.84004 86.65069
-101.621847 41.372786 111.744865
-87.84629 49.51779 112.34539
-88.388464 35.837678 147.524709
-76.655303 56.090907 173.090793
-70.20011 61.92111 171.85384
-45.379125 48.659022 150.371813
-38.946628 46.747683 130.610369
-33.5397 41.26168 127.08527
-30.517887 37.760516 120.572795
-27.839887 28.994196 115.38219
-33.310174 22.776394 111.065323
-33.138168 22.599104 110.432539
-26.032699 27.111876 107.886801
-21.383473 48.922107 104.520151
-11.92279 49.5947 91.5366
-29.708282 67.229449 104.386539
-37.74746 88.97552 70.81553
-37.39646 88.14115 70.1255
-35.01308 101.21224 54.90474
-40.55465 81.9518 48.67171
-15.471898 94.56762 30.33529
-5.10998 107.22973 19.54403
-15.760158 137.426254 46.972521
-4.28441 147.07028 40.91997
-4.03523 143.45151 27.24181
-10.16205 176.12983 33.10314
-13.48406 187.61116 40.91564
-14.43333 191.18773 17.11198
-17.58641 173.28863 27.29877
-34.44569 172.03451 40.169
-23.94779 168.80898 54.67441
-28.54786 156.84808 70.83961
-37.23157 151.26311 73.88778
-38.88639 152.8971 93.88427
-45.62639 160.41802 93.73479
-58.88392 161.51258 69.39513
-66.80691 166.44583 72.62298
-88.190582 140.840989 64.133122
-103.719461 155.827883 43.296146
-110.159382 134.671835 47.028749
-116.557734 139.099446 36.990081
-134.56982 118.12435 13.91277
-143.090061 128.51881 51.524827
-125.520417 124.11625 48.173331
-107.942559 116.044132 51.877045
-116.28812 119.29173 34.33915
-100.607191 116.890029 25.948153
-100.55326 116.959741 25.960859
-63.259835 136.622527 5.73815
-62.376801 122.027699 50.868957
-74.429116 128.226367 82.886443
-85.559887 139.655145 80.878837
-93.2358 133.075 83.57022
-97.19224 128.54754 112.91064
-62.28457 144.95441 119.01658
-58.360328 142.593784 96.256078
-58.15731 141.95743 95.06008
-50.327148 139.161239 95.472641
-53.11938 121.30011 82.38737
-36.338714 102.430224 88.876416
-25.76389 122.17068 95.86163
-24.52642 118.59259 115.23315
-41.390468 108.896254 121.000948
-37.26139 108.46756 124.02653
-28.0262 122.5165 136.52328
-35.44943 128.60379 150.13959
-18.100602 81.715784 146.957509
-16.620547 57.538049 150.414087
-21.165874 69.415948 172.648651
-6.4867 31.71604 175.77624
-14.043823 25.273218 168.544529
-31.737425 20.844789 152.743252
-40.41909 8.007824 138.888197
-4.402084 12.100993 124.117464
-0.581431 12.882381 92.946978
-10.22958 0.547148 51.23541
-19.98 5.04305 14.95504
-33.755092 1.805942 0.471696
-65.15769 27.34767 1.0373
-66.056989 20.557763 8.255229
-59.31445 15.87358 25.8525
-34.16483 8.28486 33.3921
-28.18415 14.45842 37.02832
-26.42238 23.29858 46.2201
-28.604279 25.225134 50.033676
-31.92462 56.30519 56.8706
-14.81414 46.96265 39.21162
-10.983278 45.053951 30.422844
-14.69312 31.7617 3.20024
-14.09549 35.14856 3.46358
-26.21889 53.36048 3.69099
-49.949483 73.964883 2.029794
-79.523059 60.616752 0.55912
-101.017547 77.579805 12.613523
-92.815021 64.291314 26.500749
-64.12664 82.35479 36.74523
-74.29298 79.25466 58.5673
-74.50851 54.30348 66.51975
-87.382468 65.886551 80.443472
-103.62206 69.94208 63.61454
-110.88308 63.36788 79.56742
-132.277479 69.80271 101.804786
-129.266773 96.768512 82.231051
-115.26179 98.53777 82.54181
-116.91924 108.21992 106.9843
-110.82604 75.15648 123.5287
-107.15267 69.19455 132.18119
-84.96677 84.49391 107.07365
-68.35882 68.83318 107.89878
-66.93935 50.05096 105.7472
-66.792071 27.524121 107.097585
-66.13102 27.18087 105.92404
-41.41492 24.84907 93.93073
-36.756828 6.487766 83.235394
-80.497632 6.430425 74.652469
-101.044951 21.893937 60.768047
-107.267373 27.42108 44.65815
-109.14853 4.43379 3.36562
-106.33926 5.08011 27.67546
-86.832184 6.756996 43.810122
-79.22294 6.56542 54.02774
-71.571995 2.775571 50.663361
-71.87679 2.20247 55.61623
-168.139045 -99.36664 47.570949
-143.17802 -85.63868 31.78559
-139.37186 -100.56877 3.72487
-144.21726 -129.02251 9.13653
-130.768739 -136.461995 18.651828
-137.923366 -121.381065 45.282396
-127.476659 -113.1653 50.469501
-126.38609 -102.35397 27.93544
-107.736351 -82.278862 37.691519
-104.152956 -76.327803 20.193716
-98.948238 -107.589527 8.092506
-104.173395 -119.826254 2.205432
-81.87523 -121.41967 6.43281
-66.1701 -100.39373 15.51618
-55.6255 -92.99226 30.38014
-68.465092 -82.968954 41.245508
-79.06486 -74.63478 37.76241
-67.61181 -64.08157 40.61269
-67.14014 -63.98547 26.7718
-88.23448 -59.32531 36.98938
-94.87671 -51.88142 35.96709
-100.306595 -34.960856 32.508723
-110.195 -29.92712 25.05483
-113.04998 -55.80201 40.44197
-132.96143 -67.20908 46.85085
-146.876572 -62.912258 48.27184
-164.648828 -66.878795 43.572922
-164.664016 -71.198034 27.090151
-156.347078 -59.744395 7.963848
-154.97007 -59.239963 7.899754
-163.59162 -56.94884 28.75153
-174.751667 -26.9001 30.626704
-138.69551 -23.75376 29.13084
-133.60166 -18.33881 20.90212
-129.37629 -16.43566 19.31752
-132.600134 -24.043703 37.056797
-150.18549 -32.46037 71.12877
-162.11012 -51.10375 53.68871
-168.56941 -50.13792 66.55749
-153.44417 -58.55352 91.92972
-133.272619 -48.285327 93.275116
-127.918157 -47.177053 92.927459
-152.35201 -39.16767 111.07011
-133.272674 -26.498907 111.136583
-112.984915 -35.041934 136.469379
-112.239004 -76.713188 138.075841
-99.970839 -66.967037 120.385946
-83.832007 -38.824942 96.29927
-80.787009 -42.96021 108.852828
-72.33871 -53.13642 114.26925
-62.601447 -49.5621 105.612633
-58.58189 -60.55134 92.44209
-58.29123 -58.76436 84.01216
-53.64589 -97.717097 90.776094
-20.64569 -119.09033 76.90492
-29.748819 -126.627267 51.379271
-24.764947 -126.909689 44.522936
-15.87067 -144.53242 32.39454
-28.199805 -147.403342 21.247123
-14.70811 -198.07741 20.13799
-34.010177 -175.000947 34.834759
-47.691346 -142.996399 44.582525
-60.80691 -151.93805 36.61931
-67.731675 -159.458016 22.206762
-71.309363 -169.786657 61.315618
-90.947914 -147.255845 40.576747
-118.644834 -144.925359 64.196338
-121.38752 -129.37889 82.23444
-117.913926 -125.760642 80.15975
-122.34877 -112.37106 73.65617
-120.63243 -89.03918 65.55773
-118.28627 -87.34969 64.30405
-113.69334 -58.592894 65.112354
-102.458927 -73.043786 71.563793
-107.32826 -85.89414 78.55332
-124.488554 -82.353145 86.935632
-130.440374 -104.642 111.727512
-97.48862 -119.53838 90.09316
-71.45594 -125.07816 94.63601
-49.953311 -108.20644 103.462956
-61.84702 -99.62833 107.27031
-59.370456 -114.547379 123.795885
-32.403871 -116.612833 131.472209
-32.660494 -117.174833 132.113869
-30.813872 -120.469718 133.746288
-20.74326 -111.488507 147.501662
-47.575289 -90.481307 135.384417
-57.36585 -78.480906 168.962727
-61.20433 -63.54988 155.21589
-33.971049 -27.796296 171.143885
-23.42929 -14.67099 166.93229
-25.25837 -19.27164 196.37253
-6.194003 -59.500099 182.788976
-17.67632 -61.67324 138.43316
-18.33098 -26.49211 129.14122
-7.496075 -48.67263 117.766347
-7.28444 -66.49556 125.14635
-7.11409 -66.49864 124.11043
-0.902871 -96.19862 101.699862
-15.932306 -90.091949 81.544151
-19.75807 -92.131108 74.796562
-30.73152 -85.93139 56.15032
-26.346719 -77.731964 54.346959
-24.921246 -90.084944 45.067865
-16.720611 -94.584648 47.89421
-9.9114 -109.34101 6.82125
-13.027377 -100.234372 9.81719
-11.512415 -76.447578 2.843577
-7.38247 -76.28308 25.77969
-8.18464 -61.34956 28.40756
-4.34406 -73.437 38.65655
-4.82592 -68.72396 65.10036
-17.354124 -53.754635 94.214286
-18.094141 -37.384138 98.992073
-18.056371 -37.324137 98.908425
-33.802914 -28.959125 100.236124
-41.85388 -23.56764 88.43971
-40.4189 -8.78428 93.38443
-49.73677 -5.12951 118.87881
-79.88378 -8.04484 164.83953
-87.979978 -4.747241 123.459623
-90.39804 -17.67085 116.87872
-117.843846 -11.297853 107.087481
-103.192883 -37.338903 77.146711
-101.428039 -36.709368 75.820262
-80.793477 -36.601118 63.776673
-67.63524 -24.53736 79.28718
-62.66213 -9.29293 55.76481
-68.689522 -33.028111 50.041017
-76.76072 -24.89414 42.68726
-77.677828 -16.484965 13.644017
-69.57507 -28.81767 13.7904
-46.65503 -23.19265 13.85494
-39.97663 -11.36452 20.08857
-43.12826 -22.70248 21.47258
-46.50321 -43.13397 21.96442
-15.188422 -34.691756 52.709526
-21.74286 -48.92451 60.202
-11.76301 -52.54468 51.42212
-8.66144 -40.86415 42.75453
-0.17373 -18.16613 1.49123
-1.723612 -16.691284 42.239005
59.023395 -2.77694 2.473644
57.6778 -7.11525 21.08009
63.16665 -17.945205 19.516382
68.08447 -38.82732 42.2142
50.62257 -38.97986 20.3206
19.86273 -18.69789 21.88742
19.79356 -18.63636 21.81892
19.68033 -8.3547 33.81486
34.78781 -11.5001 35.79733
34.75601 -7.18451 55.00421
35.881457 -22.500528 71.31437
22.549214 -23.901504 62.195119
20.441114 -26.506974 73.283323
2.19434 -23.81656 76.94536
7.857682 -18.424643 54.015277
3.304967 -17.518207 30.431845
3.272447 -17.345728 30.128331
1.20862 -50.77062 2.21741
23.55468 -44.873 7.90749
19.358398 -55.502981 5.311671
23.766154 -78.861271 31.429894
23.952119 -79.318872 31.59942
9.60565 -59.08009 48.09731
16.669055 -89.986296 56.810565
3.62378 -86.24863 68.56197
16.64836 -107.2123 111.35233
15.086372 -101.14291 129.568622
8.811011 -122.040368 124.770297
10.042067 -131.880257 148.800306
47.92178 -107.07751 140.90766
50.386149 -83.031061 135.812797
34.58797 -82.365472 146.261202
38.99623 -56.9941 161.54269
20.2083 -31.45545 165.08111
20.259697 -6.630867 193.012163
35.614199 -6.366023 186.189512
30.08186 -2.71815 137.74751
27.17175 -0.89877 105.46133
69.392621 -10.833516 111.758129
108.79867 -5.677 125.39917
120.23141 -0.66879 127.7186
89.36549 -5.41651 158.01992
85.809007 -10.761801 144.878015
52.76111 -44.83201 133.48778
44.4524 -50.55924 125.75933
77.291762 -65.469778 140.509827
89.75228 -65.90613 140.17387
96.241828 -94.009539 138.760737
123.494363 -82.90814 132.049635
141.37206 -53.2098 123.99343
150.686256 -74.703338 88.890538
137.22599 -42.85387 100.12572
158.219071 -9.793392 116.255376
175.471957 -5.252566 97.381957
144.00618 -10.16755 92.1345
122.900132 -37.63151 79.55072
119.44331 -53.50155 83.24843
95.97367 -68.4533 61.95318
93.35368 -50.15491 50.19565
98.472776 -50.44131 36.862841
92.400347 -52.190505 2.591818
118.723579 -47.338166 21.1102
103.45664 -17.48718 32.6609
135.95494 -11.92399 13.4449
136.681573 -15.549325 0.421372
166.64866 -1.05866 22.40977
160.670921 -37.002015 9.593532
151.22785 -50.09216 34.36474
152.277035 -43.666277 50.893535
140.53522 -39.3265 55.34429
140.965487 -71.36059 23.755257
135.01678 -76.53087 45.87594
143.59866 -96.38323 45.60369
136.60962 -120.35259 32.12549
106.87579 -127.78973 14.49287
107.850921 -102.94722 18.483692
120.756242 -104.469994 26.414905
110.218218 -90.770764 60.408254
89.07683 -91.10321 52.41957
87.84956 -110.08198 65.86533
71.414881 -119.282393 79.926408
73.963263 -123.277553 62.024048
85.011805 -141.347963 50.643712
87.89994 -167.02189 34.69379
94.424885 -159.399338 51.691664
92.025964 -158.229977 76.606248
76.989098 -126.664118 117.81583
82.77007 -82.70574 98.4271
56.684578 -64.591751 84.451024
51.817429 -104.115149 73.770073
53.345213 -106.518726 74.485286
46.719057 -122.395562 85.803784
30.74982 -121.01832 80.782
4.12832 -134.62756 79.53585
32.731915 -142.204529 43.449597
33.750055 -155.911182 50.104978
57.63123 -170.62539 63.13101
35.60021 -176.31081 67.41603
12.300374 -175.472143 43.568354
22.201399 -161.707176 19.566285
36.704973 -183.81345 20.817806
41.109588 -168.336519 33.615165
34.657278 -161.355135 31.313901
53.79424 -138.38527 31.40845
56.50026 -144.36012 8.43584
57.612059 -131.442152 11.506026
65.63854 -119.25647 15.28534
64.921625 -109.359407 7.392475
26.221624 -106.238147 16.163006
27.602031 -106.731093 11.398354
31.6458 -97.0451 5.14659
16.127294 -110.951101 -155.819461
3.7635 -82.59198 -155.50848
17.255483 -77.121928 -148.949799
30.64827 -62.8727 -159.29426
35.979864 -58.954527 -165.30095
61.257951 -85.309751 -169.967197
83.14293 -54.72052 -157.46832
94.375244 -42.229325 -160.570247
122.535858 -30.922779 -149.159278
96.183186 -17.355127 -172.89524
74.75459 -34.180982 -180.578609
42.08227 -38.77326 -189.20359
43.35376 -18.86467 -176.6318
42.18226 -27.10722 -155.26337
54.904954 -12.255476 -137.39681
51.47553 -19.11906 -119.81825
69.574956 -31.610099 -107.37178
73.82862 -35.11159 -110.9963
75.636832 -54.601906 -114.568633
81.927737 -48.410543 -117.547368
90.740434 -55.199627 -113.874706
91.03246 -58.96903 -117.55527
85.868102 -77.430653 -110.170586
72.411377 -103.792976 -133.029389
50.94198 -85.96462 -119.29778
36.80929 -105.82772 -115.58006
24.278813 -92.008508 -106.714788
5.12718 -95.00436 -90.11307
3.96121 -141.9176 -103.22427
32.89652 -147.31332 -76.6554
38.53497 -128.29241 -103.9459
39.45759 -132.31884 -104.28815
53.71773 -144.64361 -107.97322
81.152643 -145.466133 -101.41737
99.548109 -132.420569 -99.031011
76.49307 -118.98178 -82.38654
66.421975 -106.550533 -77.719467
75.636787 -100.655944 -66.246624
87.99322 -99.37473 -62.66031
86.683024 -103.117328 -59.335976
61.905797 -113.668929 -57.472565
76.951176 -120.419447 -53.416323
84.99452 -151.263883 -38.688561
108.597778 -164.078975 -2.973491
67.863124 -159.651321 -34.584809
29.248762 -161.935346 -39.149282
30.454658 -171.426829 -32.167885
17.19456 -184.38938 -9.37748
16.512906 -190.202447 -6.462207
24.444846 -186.454476 -5.971833
29.439015 -140.146714 -9.112547
21.837749 -127.931905 -33.54692
16.905076 -122.956838 -42.516859
20.62141 -120.35562 -47.00031
35.894853 -97.847755 -14.03117
1.73292 -77.46096 -4.10305
5.85883 -26.52454 -12.00123
23.501901 -20.217549 -24.990119
26.179531 -19.448824 -37.53367
17.32589 -9.66715 -30.30307
25.81532 -6.21353 -19.18773
43.376185 -12.993812 -11.513691
45.17834 -10.71109 -12.33013
62.35383 -17.7617 -39.8326
64.50517 -17.99476 -38.07757
74.36065 -17.39907 -48.21936
73.135423 -19.510267 -31.390411
77.899625 -28.828476 -31.256782
65.14846 -49.40104 -14.10878
78.017001 -40.746718 -7.144789
118.57838 -40.20926 -5.80981
133.79153 -41.9766 -17.44098
149.440539 -57.243381 -2.358122
158.513379 -41.093487 -11.018918
192.688187 -53.202822 -8.362302
185.119127 -30.074557 -35.651383
175.290915 -3.323672 -18.873298
149.850553 -19.575529 -56.177844
138.167738 -16.457624 -42.133589
121.698632 -11.648002 -35.602751
107.12884 -19.66966 -50.78648
108.060477 -38.941258 -65.449044
131.807545 -29.054739 -65.629677
153.404888 -13.517136 -99.035425
175.927886 -46.679138 -80.864542
175.53842 -46.532186 -80.744227
135.180178 -53.244971 -68.502809
125.583782 -52.495372 -78.654556
136.70951 -71.05556 -98.3382
123.2396 -103.63004 -79.76564
116.33634 -135.058931 -61.106794
126.634526 -121.359969 -53.51543
123.482739 -115.978701 -41.996827
110.497937 -113.651345 -29.244849
111.80884 -114.953165 -13.60083
104.313646 -102.532455 -16.201299
127.56994 -100.31474 -19.4788
136.898344 -104.985691 -38.281988
114.089551 -95.539849 -53.737008
106.71331 -70.97006 -50.63408
95.34405 -62.48606 -32.96196
84.244277 -77.668514 -27.109358
58.57959 -68.67725 -57.36307
55.191628 -62.843015 -50.937679
44.17951 -65.93863 -40.49903
37.36291 -39.87443 -16.67998
26.32166 -40.84363 -35.43434
23.973516 -36.251526 -43.712072
18.1341 -56.76232 -66.36301
17.272709 -67.383086 -103.105148
48.703951 -56.866382 -98.29714
48.976629 -47.618743 -105.035392
50.197179 -29.096034 -99.502088
33.685116 -3.001696 -108.747604
25.054078 -0.672298 -97.856156
20.753367 -5.981282 -83.292226
30.25799 -23.97286 -84.18648
13.13772 -20.87713 -55.87991
-128.5831 -52.18036 -5.71972
-133.71935 -62.4388 -10.80151
-158.6784 -65.91122 -25.90866
-177.158428 -78.333359 -1.312903
-160.51261 -105.7581 -23.46214
-123.639358 -95.536826 -23.762574
-137.71311 -118.72446 -18.01463
-115.086349 -129.883839 -4.100164
-119.73394 -145.33718 -15.73787
-124.291903 -125.078909 -34.713795
-84.784283 -121.737926 -48.342
-81.09596 -124.17672 -28.55097
-88.38383 -114.32415 -17.67498
-65.730511 -113.726051 -19.053311
-60.49152 -123.50743 -20.23308
-62.567177 -123.723716 -47.404708
-61.26134 -136.1972 -68.71993
-86.098712 -158.047302 -67.117256
-69.150464 -157.541315 -69.298749
-53.65836 -167.04106 -49.44484
-48.261842 -160.275902 -0.095251
-21.0463 -162.02881 -3.03147
-34.82345 -189.56172 -5.9945
-31.865285 -194.886188 -8.237355
-40.60809 -194.61136 -17.83142
-48.987905 -192.272463 -21.095005
-37.18285 -181.44041 -27.41822
-27.41337 -159.56245 -62.51407
-11.84939 -163.60471 -65.22104
-22.300774 -164.421388 -73.308466
-38.294094 -154.929506 -86.953815
-42.87748 -148.63408 -96.91855
-48.42163 -153.9568 -110.06616
-38.82178 -142.15427 -121.72734
-49.96343 -112.85048 -117.7683
-70.60857 -101.96187 -122.56524
-65.765204 -100.764635 -93.73001
-55.221711 -93.442957 -99.895579
-62.029775 -75.089 -109.38744
-71.205256 -72.003328 -96.631077
-110.118496 -55.929426 -78.471639
-116.217134 -54.85722 -88.208894
-114.048028 -73.32399 -82.404058
-111.568938 -103.728108 -68.802647
-133.3829 -92.54387 -78.53378
-133.618241 -73.334072 -84.804033
-156.84097 -82.8143 -80.41904
-165.9584 -66.96373 -90.990942
-145.65089 -72.37099 -105.79613
-123.58808 -76.24204 -106.94288
-135.62569 -49.76416 -107.73082
-156.8848 -42.3528 -112.13022
-130.40973 -20.63944 -136.43353
-136.650636 -5.910832 -142.67478
-104.384488 -20.874186 -166.188056
-84.65553 -2.54271 -178.47491
-57.970728 -8.533991 -150.733492
-73.599113 -20.173442 -151.054467
-92.85181 -27.04535 -125.77587
-89.303917 -47.775003 -124.722255
-88.58292 -29.74795 -156.15439
-77.735057 -50.073297 -173.392505
-53.19852 -45.63974 -150.14538
-38.031046 -72.831156 -123.870211
-32.546188 -65.122902 -114.61444
-16.473241 -75.837821 -101.19287
-6.62558 -95.61971 -121.9514
-12.771847 -97.603434 -124.362954
-14.511714 -65.695382 -120.019027
-14.207619 -43.974878 -150.951638
-13.10709 -18.00542 -128.96414
-16.313041 -38.65548 -115.802573
-28.69157 -47.34869 -110.70637
-49.463155 -34.334815 -101.74163
-53.316633 -35.030911 -97.271686
-58.85415 -9.81456 -76.37418
-55.48597 -9.97637 -53.62282
-83.57279 -9.1066 -27.70875
-69.60892 -16.7045 -23.30747
-76.51172 -27.24657 -26.878
-96.005619 -47.782909 -34.783211
-115.493078 -59.939656 -52.87136
-125.988623 -49.5048 -73.113846
-148.9052 -56.09453 -67.3857
-153.368826 -42.779436 -80.387459
-166.124935 -35.441754 -78.509173
-166.341466 -35.478805 -78.603742
-173.84353 -24.48661 -50.9915
-135.57668 -4.97944 -62.48321
-119.885009 -5.859275 -43.594971
-125.516 -0.40575 -23.14084
-114.88622 -21.11702 -2.95552
-104.13837 -23.433082 -1.434197
-89.895001 -52.445909 -4.821369
-83.56758 -64.71623 -23.038
-76.23809 -54.16765 -27.27426
-55.64952 -81.05292 -34.76175
-34.77447 -91.01465 -3.95514
-21.21931 -99.55354 -3.29093
-25.3238 -103.60059 -9.45549
-24.781918 -101.687111 -9.339024
-17.72845 -94.25782 -13.26847
-6.67558 -111.05518 -69.79678
-7.45891 -123.81817 -77.8225
-33.34739 -117.86578 -99.52532
-33.020445 -116.521584 -98.554506
-35.8219 -104.403918 -89.203802
-41.63462 -93.03609 -83.21719
-40.27174 -90.47466 -80.7489
-7.070884 -65.164931 -74.555703
-10.73804 -59.47684 -63.99284
-27.94995 -59.9789 -50.82844
-9.97648 -55.10603 -39.19803
-11.02705 -45.36064 -31.21219
-10.27046 -52.04798 -26.56955
-10.14027 -52.43915 -26.68326
-17.9055 -61.839154 -9.42213
-17.03055 -58.88724 -8.98248
-16.023261 -38.826946 -9.440836
-40.270784 -47.749712 -8.470665
-47.971446 -38.251986 -13.621345
-39.44034 -38.56974 -21.63168
-38.87091 -38.02093 -21.3259
-30.89858 -28.19683 -20.50308
-26.75893 -24.42217 -17.75248
-4.95203 -4.14084 -11.56625
-4.95181 -4.13973 -11.56674
-4.72264 -3.61451 -11.51219
-4.82554 -16.4315 -32.75755
-5.41199 -18.43027 -36.74755
-4.22874 -30.73668 -33.14975
-3.63042 -36.15031 -35.47885
-1.84376 -31.42875 -49.07535
-26.77098 -35.587458 -39.095157
-25.89262 -0.54392 -48.71237
-19.662874 1.218167 -41.947452
-41.14851 3.02206 -33.93018
-70.01078 35.55904 -5.14073
-77.58109 58.82119 -23.35351
-70.683683 51.340673 -34.703466
-82.190309 49.680315 -49.488424
-99.75212 46.2288 -48.13494
-107.959811 67.99903 -27.902904
-109.79393 55.89562 -5.77721
-115.081693 50.535971 -22.678827
-120.14959 58.1047 -28.27516
-146.362503 53.514721 -18.925354
-134.552855 83.105854 -10.204959
-136.96743 105.90983 -8.37388
-144.196657 111.491946 -8.757917
-137.977851 106.943588 -22.592291
-143.788894 107.938246 -35.549623
-119.30031 125.38813 -16.46538
-104.537515 98.55364 -22.256521
-97.685979 84.664113 -43.567236
-69.2291 100.35411 -27.32344
-41.25626 89.81866 -38.38654
-64.171135 81.520255 -63.570589
-56.912415 65.878987 -70.199059
-69.443981 43.761625 -77.906374
-59.345243 41.646222 -63.170306
-54.723268 36.742633 -67.731029
-40.261029 33.307281 -91.538589
-22.107832 32.127649 -98.072638
-11.460574 22.203528 -105.723704
-1.19802 26.79222 -98.39152
-3.215814 21.711053 -85.66036
-3.218767 21.694375 -85.566964
-14.098727 54.761054 -55.165165
-2.479145 53.692949 -21.57215
-4.94323 24.76731 -7.58485
-5.27146 40.88126 -2.02607
-19.62415 84.49535 -7.85422
-3.468342 102.851922 -49.628573
-0.19968 140.48419 -84.50735
-9.195245 153.035891 -67.815183
-36.777526 134.360733 -67.788014
-44.903192 146.621474 -64.503963
-47.437647 156.662645 -64.341077
-35.998 155.045813 -78.967205
-17.830963 169.121094 -86.572153
-29.71851 184.07811 -65.13678
-51.435036 183.25632 -22.698192
-35.219748 164.896844 -31.034464
-43.61774 151.37705 -29.22259
-46.331 113.59117 -7.06952
-59.298433 127.094286 -8.83557
-59.349724 127.290423 -8.832868
-58.191115 130.516751 -7.769243
-87.739047 155.140699 -2.533492
-75.0733 141.53226 -39.64222
-76.833275 141.250749 -76.015605
-82.369244 145.469329 -80.193969
-93.79037 150.76242 -80.18549
-114.54706 137.56704 -74.74291
-132.705235 101.399534 -104.774065
-113.82585 86.79058 -122.10922
-92.825517 54.360465 -113.068336
-125.194719 45.718289 -131.024762
-136.132107 48.299195 -107.404806
-122.99822 44.06673 -98.08145
-103.61981 37.84815 -85.9416
-126.042294 42.615404 -79.341305
-119.877798 68.406328 -80.936522
-113.18572 77.6158 -60.86167
-132.586763 90.625941 -56.038912
-145.12588 73.83679 -54.85444
-170.316983 57.302665 -62.285352
-171.77317 40.08213 -61.74065
-173.981183 33.530182 -46.462792
-190.224675 41.160743 -37.649826
-193.995 5.6999 -25.11811
-190.988229 11.07299 -47.761318
-187.490405 11.814849 -69.690658
-169.219415 18.815382 -75.350692
-153.172255 8.524556 -89.600113
-153.964979 29.141407 -82.666185
-149.09199 29.43565 -49.80594
-132.97719 26.24087 -44.41978
-129.63068 16.66525 -18.58998
-121.59172 20.65062 -45.99891
-95.524352 21.392575 -44.818801
-90.511528 0.822891 -47.540994
-79.850131 8.929058 -51.836052
-76.496527 8.226531 -49.09684
-69.9949 4.12234 -59.88563
-80.801052 10.00725 -70.890086
-91.307912 7.576781 -89.735734
-67.900713 4.942239 -86.647738
-67.430737 13.129579 -108.010494
-64.3535 9.99927 -120.68684
-40.80371 18.08276 -155.97165
-25.15914 36.42744 -190.54133
-35.932156 60.689461 -158.570573
-39.618077 70.168002 -141.28658
-51.20016 81.13858 -175.25983
-27.41271 82.98775 -174.11184
-22.759055 84.954814 -160.87867
-11.68854 78.632366 -129.854135
-12.792977 73.270593 -108.667006
-15.755854 96.238445 -116.377043
-33.03102 93.93701 -106.70375
-52.343088 82.199151 -129.158083
-87.04004 99.7889 -129.99936
-75.46039 133.63654 -103.33048
-69.40256 130.16933 -102.16518
-66.853509 123.980832 -93.025882
-51.25546 125.5097 -79.05325
-55.94502 112.72064 -85.43229
-33.592726 117.242815 -116.16738
-33.889508 118.226322 -117.159511
-34.70064 121.34061 -120.02095
-4.894235 122.796692 -145.88105
6.097111 199.694929 -20.985483
28.055831 156.016378 -8.51083
7.568975 151.817594 -10.884204
17.753416 128.064212 -7.914167
39.45704 120.72764 -38.67261
32.391469 109.072347 -36.478559
38.559742 102.714306 -21.405069
3.82999 93.91268 -2.34532
22.12605 83.76843 -8.72994
21.643111 85.738404 -27.66992
19.776519 86.684039 -29.194551
5.58889 82.31515 -34.0875
19.85393 77.42932 -31.09538
40.31777 72.04078 -22.35649
50.06502 73.70189 -15.33131
73.67728 69.02771 -22.88171
74.47634 45.22928 -27.66518
68.761115 42.054006 -46.866498
45.267333 46.004157 -19.233649
28.39238 33.81499 -41.27499
5.78997 27.05174 -27.6822
6.998159 55.924563 -3.630803
21.79524 44.32894 -6.6374
18.9897 25.41426 -5.28523
31.54083 15.39508 -10.0226
33.53772 10.97975 -10.78832
47.79241 3.2306 -13.85667
34.48844 0.81384 -26.33508
40.848744 19.005137 -67.290931
29.96021 9.50129 -75.67468
16.35267 1.84517 -72.75205
36.31914 3.18885 -77.74227
56.7201 0.53101 -142.39841
61.694806 1.424199 -151.48267
71.652188 1.97883 -159.813475
30.855881 2.191799 -172.811485
3.00098 30.060739 -179.849014
7.715696 56.233544 -124.250446
1.67969 64.90966 -112.57094
14.752491 61.199713 -99.019207
14.74776 60.85643 -98.18715
17.769316 59.533652 -91.626151
34.115976 69.925073 -104.412681
41.90276 79.889517 -121.343129
53.515121 73.002662 -102.015345
58.89771 54.045057 -106.607945
36.03559 42.27199 -106.734
35.96056 42.01871 -106.58337
37.70908 35.27811 -104.38969
25.17808 27.60182 -95.33701
44.21565 38.18177 -80.75542
59.892712 38.335415 -87.255944
46.74763 62.559186 -77.286223
65.490531 52.269846 -80.347102
94.665466 62.60346 -71.038277
96.163457 65.291256 -69.805578
101.163142 70.308186 -92.081258
134.082694 46.993649 -102.156925
117.472112 43.689949 -111.50464
105.867145 48.652914 -117.519121
106.969111 49.155736 -118.723143
96.96827 53.72709 -139.91232
92.124548 44.184787 -139.301248
92.660911 31.261672 -134.307618
100.23612 34.11601 -107.86636
100.27401 20.2916 -111.85157
115.020129 23.302688 -105.333463
121.638512 11.352944 -125.4073
133.193278 12.598503 -138.997474
161.183973 29.510791 -108.980207
154.020166 14.786583 -94.472027
158.47101 16.966912 -81.299093
180.46958 8.87717 -50.00042
178.273559 39.078103 -78.267359
161.601384 69.653789 -79.006696
161.394012 68.862138 -70.570221
151.13168 33.59263 -29.09778
138.369897 31.677019 -59.994574
137.99451 22.68712 -64.52147
117.139618 27.599386 -70.485233
105.68623 27.56147 -57.72468
90.051052 48.302552 -42.191498
93.61391 64.92719 -55.43174
101.31041 88.92749 -45.29443
83.29775 92.5728 -68.99408
72.42316 92.59198 -42.33158
73.611628 109.059651 -45.589193
88.89125 135.38595 -69.58253
68.964554 168.882564 -43.847629
66.07263 182.74199 -31.45941
42.207539 178.664604 -72.633303
44.668798 155.017779 -87.829016
43.694359 138.310701 -101.972401
43.174386 131.661917 -73.180699
43.889379 144.477441 -45.656569
2.26289 144.24355 -36.4172
2.335314 125.214612 -63.416655
6.254518 116.353171 -85.684375
21.994752 148.278749 -95.516448
20.897479 133.844896 -109.580753
18.149942 138.959503 -129.307895
21.225336 144.593921 -133.158603
6.77437 121.9782 -151.22127
13.594581 106.687601 -145.428437
13.475505 94.834703 -168.728499
40.583346 74.769494 -175.153557
40.63966 83.77204 -156.82734
45.070323 57.171591 -146.016218
60.10741 49.4958 -128.33073
68.26055 56.78155 -143.13176
83.31671 71.516167 -134.626216
78.503166 96.333836 -148.050527
78.584311 96.414884 -148.197704
67.683186 113.323297 -116.138498
71.089482 105.55071 -100.432451
88.067055 108.355847 -117.481199
129.462478 92.710851 -109.660172
113.533974 121.668186 -89.305099
109.53543 124.624278 -82.528586
126.578706 129.530477 -59.425132
146.21447 111.21247 -66.78687
161.39393 102.42592 -48.93398
149.920002 79.563822 -32.394233
109.279115 132.315993 -20.07917
95.17687 118.579067 -14.284622
81.243021 133.347213 -18.685247
77.738931 131.286165 -3.089604
92.29661 164.15565 -0.88392
92.228238 141.197595 -5.810846
